@relation dataset

@attribute ID numeric
@attribute Time date 'yyyy/MM/dd HH:mm:ss:SSS'
@attribute 'Training round' numeric
@attribute inputs-1 numeric
@attribute inputs-2 numeric
@attribute inputs-3 numeric
@attribute inputs-4 numeric
@attribute inputs-5 numeric
@attribute inputs-6 numeric
@attribute inputs-7 numeric
@attribute inputs-8 numeric
@attribute inputs-9 numeric
@attribute inputs-10 numeric
@attribute inputs-11 numeric
@attribute inputs-12 numeric
@attribute inputs-13 numeric
@attribute inputs-14 numeric
@attribute inputs-15 numeric
@attribute inputs-16 numeric
@attribute inputs-17 numeric
@attribute inputs-18 numeric
@attribute inputs-19 numeric
@attribute inputs-20 numeric
@attribute inputs-21 numeric
@attribute inputs-22 numeric
@attribute inputs-23 numeric
@attribute inputs-24 numeric
@attribute inputs-25 numeric
@attribute inputs-26 numeric
@attribute inputs-27 numeric
@attribute inputs-28 numeric
@attribute inputs-29 numeric
@attribute inputs-30 numeric
@attribute inputs-31 numeric
@attribute inputs-32 numeric
@attribute inputs-33 numeric
@attribute inputs-34 numeric
@attribute inputs-35 numeric
@attribute inputs-36 numeric
@attribute inputs-37 numeric
@attribute inputs-38 numeric
@attribute inputs-39 numeric
@attribute inputs-40 numeric
@attribute inputs-41 numeric
@attribute inputs-42 numeric
@attribute inputs-43 numeric
@attribute inputs-44 numeric
@attribute inputs-45 numeric
@attribute inputs-46 numeric
@attribute inputs-47 numeric
@attribute inputs-48 numeric
@attribute inputs-49 numeric
@attribute inputs-50 numeric
@attribute inputs-51 numeric
@attribute inputs-52 numeric
@attribute inputs-53 numeric
@attribute inputs-54 numeric
@attribute inputs-55 numeric
@attribute inputs-56 numeric
@attribute inputs-57 numeric
@attribute inputs-58 numeric
@attribute inputs-59 numeric
@attribute inputs-60 numeric
@attribute inputs-61 numeric
@attribute inputs-62 numeric
@attribute inputs-63 numeric
@attribute inputs-64 numeric
@attribute inputs-65 numeric
@attribute inputs-66 numeric
@attribute inputs-67 numeric
@attribute inputs-68 numeric
@attribute inputs-69 numeric
@attribute inputs-70 numeric
@attribute inputs-71 numeric
@attribute inputs-72 numeric
@attribute inputs-73 numeric
@attribute inputs-74 numeric
@attribute inputs-75 numeric
@attribute inputs-76 numeric
@attribute inputs-77 numeric
@attribute inputs-78 numeric
@attribute inputs-79 numeric
@attribute inputs-80 numeric
@attribute inputs-81 numeric
@attribute inputs-82 numeric
@attribute inputs-83 numeric
@attribute inputs-84 numeric
@attribute inputs-85 numeric
@attribute inputs-86 numeric
@attribute inputs-87 numeric
@attribute inputs-88 numeric
@attribute inputs-89 numeric
@attribute inputs-90 numeric
@attribute inputs-91 numeric
@attribute inputs-92 numeric
@attribute inputs-93 numeric
@attribute inputs-94 numeric
@attribute inputs-95 numeric
@attribute inputs-96 numeric
@attribute inputs-97 numeric
@attribute inputs-98 numeric
@attribute inputs-99 numeric
@attribute outputs-1 numeric
@attribute outputs-2 numeric

@data
